1. Въведение [1]
	1.1. Идея и вдъхновение за приложението. [1]
2. Обзор на уеб приложения [1]
	2.1. Защо уеб [1]
3. Проектиране на системата [15]
	3.1. Java [2]
	3.2. HTML, CSS [1]
	3.3. Spring MVC, Spring Security [4]
	3.4. Thymeleaf [1]
	3.5. Hibernate [1]	
	3.6. SQL & MySQL [1]
	3.7. Tomcat [1]
	3.8. Maven & Git [1]
	3.9. Netbeans IDE [1]
	3.10. FURPS+ [2]
4. Реализация []
	4.1. Функционални и нефункционални изисквания []
	4.2. Видове потребители, use cases, нива на достъп ( spring security ) []
	4.3. Проектиране на базата данни []
	4.4. Контролери, сървиси, дао-та, визуален интерфейс []
5. Ръководсвто за работа []
6. Заключение []

	Краен брой страници [17]

Забележка : броя страници описани е минимален.
